…
The resulting object is passed into `predict_interval()` which can
output prediction intervals on `new_data`.

``` r
set.seed(12)
pred_intervals <- intervals_prepped %>%
  predict_interval(new_data = other_data,
                   probs = c(0.025, 0.50, 0.975))

pred_intervals
#> # A tibble: 83 x 3
#>    probs_0.025 probs_0.500 probs_0.975
#>          <dbl>       <dbl>       <dbl>
#>  1       3153.       3858.       4492.
#>  2       2672.       3414.       4070.
#>  3       3361.       4234.       4971.
#>  4       2702.       3402.       4110.
#>  5       3347.       4177.       5520.
#>  6       2397.       3197.       3921.
#>  7       3271.       3970.       4589.
#>  8       2745.       3489.       4138.
#>  9       3191.       3954.       4587.
#> 10       2727.       3392.       4026.
#> # ... with 73 more rows
```
…
